IoC Day 2_Measurement & Data management in R
…
dplyr has 5 verbs: filter, select, mutate, arrange, summarise

filter: Keep rows matching criteria

# get all flights on January 1
filter(flights, Month=="1", DayofMonth=="1")

## Warning: package 'bindrcpp' was built under R version 3.3.3

## # A tibble: 552 x 21
##     Year Month DayofMonth DayOfWeek DepTime ArrTime UniqueCarrier
##    <int> <int>      <int>     <int>   <int>   <int> <chr>        
##  1  2011     1          1         6    1400    1500 AA           
##  2  2011     1          1         6     728     840 AA           
##  3  2011     1          1         6    1631    1736 AA           
##  4  2011     1          1         6    1756    2112 AA           
##  5  2011     1          1         6    1012    1347 AA           
##  6  2011     1          1         6    1211    1325 AA           
##  7  2011     1          1         6     557     906 AA           
##  8  2011     1          1         6    1824    2106 AS           
##  9  2011     1          1         6     654    1124 B6           
## 10  2011     1          1         6    1639    2110 B6           
## # ... with 542 more rows, and 14 more variables: FlightNum <int>,
## #   TailNum <chr>, ActualElapsedTime <int>, AirTime <int>, ArrDelay <int>,
## #   DepDelay <int>, Origin <chr>, Dest <chr>, Distance <int>,
## #   TaxiIn <int>, TaxiOut <int>, Cancelled <int>, CancellationCode <chr>,
## #   Diverted <int>

filter(flights, Month=="1" & DayofMonth=="1")

## # A tibble: 552 x 21
##     Year Month DayofMonth DayOfWeek DepTime ArrTime UniqueCarrier
##    <int> <int>      <int>     <int>   <int>   <int> <chr>        
##  1  2011     1          1         6    1400    1500 AA           
##  2  2011     1          1         6     728     840 AA           
##  3  2011     1          1         6    1631    1736 AA           
##  4  2011     1          1         6    1756    2112 AA           
##  5  2011     1          1         6    1012    1347 AA           
##  6  2011     1          1         6    1211    1325 AA           
##  7  2011     1          1         6     557     906 AA           
##  8  2011     1          1         6    1824    2106 AS           
##  9  2011     1          1         6     654    1124 B6           
## 10  2011     1          1         6    1639    2110 B6           
## # ... with 542 more rows, and 14 more variables: FlightNum <int>,
## #   TailNum <chr>, ActualElapsedTime <int>, AirTime <int>, ArrDelay <int>,
## #   DepDelay <int>, Origin <chr>, Dest <chr>, Distance <int>,
## #   TaxiIn <int>, TaxiOut <int>, Cancelled <int>, CancellationCode <chr>,
## #   Diverted <int>

# get all flights of the American Airlines and United Airlines flight carriers
# use pipe for OR condition
filter(flights, UniqueCarrier=="AA" | UniqueCarrier=="UA")

## # A tibble: 5,316 x 21
##     Year Month DayofMonth DayOfWeek DepTime ArrTime UniqueCarrier
##    <int> <int>      <int>     <int>   <int>   <int> <chr>        
##  1  2011     1          1         6    1400    1500 AA           
##  2  2011     1          2         7    1401    1501 AA           
##  3  2011     1          3         1    1352    1502 AA           
##  4  2011     1          4         2    1403    1513 AA           
##  5  2011     1          5         3    1405    1507 AA           
##  6  2011     1          6         4    1359    1503 AA           
##  7  2011     1          7         5    1359    1509 AA           
##  8  2011     1          8         6    1355    1454 AA           
##  9  2011     1          9         7    1443    1554 AA           
## 10  2011     1         10         1    1443    1553 AA           
## # ... with 5,306 more rows, and 14 more variables: FlightNum <int>,
## #   TailNum <chr>, ActualElapsedTime <int>, AirTime <int>, ArrDelay <int>,
## #   DepDelay <int>, Origin <chr>, Dest <chr>, Distance <int>,
## #   TaxiIn <int>, TaxiOut <int>, Cancelled <int>, CancellationCode <chr>,
## #   Diverted <int>

use the %in% operator

filter(flights, UniqueCarrier %in% c("AA", "UA"))

## # A tibble: 5,316 x 21
##     Year Month DayofMonth DayOfWeek DepTime ArrTime UniqueCarrier
##    <int> <int>      <int>     <int>   <int>   <int> <chr>        
##  1  2011     1          1         6    1400    1500 AA           
##  2  2011     1          2         7    1401    1501 AA           
##  3  2011     1          3         1    1352    1502 AA           
##  4  2011     1          4         2    1403    1513 AA           
##  5  2011     1          5         3    1405    1507 AA           
##  6  2011     1          6         4    1359    1503 AA           
##  7  2011     1          7         5    1359    1509 AA           
##  8  2011     1          8         6    1355    1454 AA           
##  9  2011     1          9         7    1443    1554 AA           
## 10  2011     1         10         1    1443    1553 AA           
## # ... with 5,306 more rows, and 14 more variables: FlightNum <int>,
## #   TailNum <chr>, ActualElapsedTime <int>, AirTime <int>, ArrDelay <int>,
## #   DepDelay <int>, Origin <chr>, Dest <chr>, Distance <int>,
## #   TaxiIn <int>, TaxiOut <int>, Cancelled <int>, CancellationCode <chr>,
## #   Diverted <int>

select: Pick columns by name

# select DepTime, ArrTime, and FlightNum columns
select(flights, DepTime, ArrTime, FlightNum)

## # A tibble: 227,496 x 3
##    DepTime ArrTime FlightNum
##  *   <int>   <int>     <int>
##  1    1400    1500       428
##  2    1401    1501       428
##  3    1352    1502       428
##  4    1403    1513       428
##  5    1405    1507       428
##  6    1359    1503       428
##  7    1359    1509       428
##  8    1355    1454       428
##  9    1443    1554       428
## 10    1443    1553       428
## # ... with 227,486 more rows

# `select columns Year through DayofMonth and columns that contain "Taxi" and "Delay"
select(flights, Year:DayofMonth, contains("Taxi"), contains("Delay"))

## # A tibble: 227,496 x 7
##     Year Month DayofMonth TaxiIn TaxiOut ArrDelay DepDelay
##  * <int> <int>      <int>  <int>   <int>    <int>    <int>
##  1  2011     1          1      7      13      -10        0
##  2  2011     1          2      6       9       -9        1
##  3  2011     1          3      5      17       -8       -8
##  4  2011     1          4      9      22        3        3
##  5  2011     1          5      9       9       -3        5
##  6  2011     1          6      6      13       -7       -1
##  7  2011     1          7     12      15       -1       -1
##  8  2011     1          8      7      12      -16       -5
##  9  2011     1          9      8      22       44       43
## 10  2011     1         10      6      19       43       43
## # ... with 227,486 more rows

# `select columns Year through DayofMonth and columns that start with "Taxi" and columns that end with "Time"
select(flights, Year:DayofMonth, starts_with("Taxi"), ends_with("Time"))

## # A tibble: 227,496 x 9
##     Year Month DayofMonth TaxiIn TaxiOut DepTime ArrTime ActualElapsedTime
##  * <int> <int>      <int>  <int>   <int>   <int>   <int>             <int>
##  1  2011     1          1      7      13    1400    1500                60
##  2  2011     1          2      6       9    1401    1501                60
##  3  2011     1          3      5      17    1352    1502                70
##  4  2011     1          4      9      22    1403    1513                70
##  5  2011     1          5      9       9    1405    1507                62
##  6  2011     1          6      6      13    1359    1503                64
##  7  2011     1          7     12      15    1359    1509                70
##  8  2011     1          8      7      12    1355    1454                59
##  9  2011     1          9      8      22    1443    1554                71
## 10  2011     1         10      6      19    1443    1553                70
## # ... with 227,486 more rows, and 1 more variable: AirTime <int>

# chaining or pipelineing 
# select the delays higher than 60 min, for each flight carrieer

flights %>%
  select(UniqueCarrier, DepDelay) %>%
  filter(DepDelay > 120)

## # A tibble: 3,090 x 2
##    UniqueCarrier DepDelay
##    <chr>            <int>
##  1 AA                 125
##  2 B6                 136
##  3 CO                 351
##  4 CO                 129
##  5 CO                 162
##  6 CO                 234
##  7 CO                 242
##  8 CO                 168
##  9 CO                 227
## 10 CO                 127
## # ... with 3,080 more rows

arrange: Reorder rows

# select UniqueCarrier and DepDelay columns and sort by DepDelay

flights %>%
  select(UniqueCarrier, DepDelay) %>%
  arrange(DepDelay)

## # A tibble: 227,496 x 2
##    UniqueCarrier DepDelay
##    <chr>            <int>
##  1 OO                 -33
##  2 MQ                 -23
##  3 XE                 -19
##  4 XE                 -19
##  5 CO                 -18
##  6 EV                 -18
##  7 XE                 -17
##  8 CO                 -17
##  9 XE                 -17
## 10 MQ                 -17
## # ... with 227,486 more rows

# by default, ascending order. use desc()

flights %>%
  select(UniqueCarrier, DepDelay) %>%
  arrange(desc(DepDelay))

## # A tibble: 227,496 x 2
##    UniqueCarrier DepDelay
##    <chr>            <int>
##  1 CO                 981
##  2 AA                 970
##  3 MQ                 931
##  4 UA                 869
##  5 MQ                 814
##  6 MQ                 803
##  7 CO                 780
##  8 CO                 758
##  9 DL                 730
## 10 MQ                 691
## # ... with 227,486 more rows

## mutate: Add new variables
# create a new variable Speed (in mph)
flights %>%
  select(Distance, AirTime) %>%
  mutate(Speed = Distance/AirTime*60)

## # A tibble: 227,496 x 3
##    Distance AirTime Speed
##       <int>   <int> <dbl>
##  1      224      40  336 
##  2      224      45  299.
##  3      224      48  280 
##  4      224      39  345.
##  5      224      44  305.
##  6      224      45  299.
##  7      224      43  313.
##  8      224      40  336 
##  9      224      41  328.
## 10      224      45  299.
## # ... with 227,486 more rows
…
# summarise_each
# calculate the percentage of flights cancelled or diverted, for each destination
flights %>%
  group_by(Dest) %>%
  summarise_each(funs(mean), Cancelled, Diverted)

## `summarise_each()` is deprecated.
## Use `summarise_all()`, `summarise_at()` or `summarise_if()` instead.
## To map `funs` over a selection of variables, use `summarise_at()`

## # A tibble: 116 x 3
##    Dest  Cancelled Diverted
##    <chr>     <dbl>    <dbl>
##  1 ABQ     0.00889 0.00249 
##  2 AEX     0.0166  0.00276 
##  3 AGS     0       0       
##  4 AMA     0.0247  0.00617 
##  5 ANC     0       0.008   
##  6 ASE     0.04    0.064   
##  7 ATL     0.0179  0.00355 
##  8 AUS     0.00538 0.000597
##  9 AVL     0.00857 0.00286 
## 10 BFL     0.00198 0       
## # ... with 106 more rows

# helper function n(), distinct_n()
# for each day of the year, count the total number of flights and sort in descending order
flights %>%
  group_by(Month, DayofMonth) %>%
  summarise(flight_count=n()) %>%
  arrange(desc(flight_count))

## # A tibble: 365 x 3
## # Groups:   Month [12]
##    Month DayofMonth flight_count
##    <int>      <int>        <int>
##  1     8          4          706
##  2     8         11          706
##  3     8         12          706
##  4     8          5          705
##  5     8          3          704
##  6     8         10          704
##  7     1          3          702
##  8     7          7          702
##  9     7         14          702
## 10     7         28          701
## # ... with 355 more rows

# tally function. simpler code
flights %>%
  group_by(Month, DayofMonth) %>%
  tally(sort = TRUE)

## # A tibble: 365 x 3
## # Groups:   Month [12]
##    Month DayofMonth     n
##    <int>      <int> <int>
##  1     8          4   706
##  2     8         11   706
##  3     8         12   706
##  4     8          5   705
##  5     8          3   704
##  6     8         10   704
##  7     1          3   702
##  8     7          7   702
##  9     7         14   702
## 10     7         28   701
## # ... with 355 more rows

# for each destination, count the total number of flights and the number of distinct planes that flew there
flights %>%
  group_by(Dest) %>%
  summarise(flight_count = n(), plane_count = n_distinct(TailNum))

## # A tibble: 116 x 3
##    Dest  flight_count plane_count
##    <chr>        <int>       <int>
##  1 ABQ           2812         716
##  2 AEX            724         215
##  3 AGS              1           1
##  4 AMA           1297         158
##  5 ANC            125          38
##  6 ASE            125          60
##  7 ATL           7886         983
##  8 AUS           5022        1015
##  9 AVL            350         142
## 10 BFL            504          70
## # ... with 106 more rows
…
